{
    "KPlugin": {
        "Description": "TODO",
        "Description[ca@valencia]": "Per fer",
        "Description[ca]": "Per fer",
        "Description[cs]": "Úkoly",
        "Description[da]": "TODO",
        "Description[de]": " ",
        "Description[el]": "TODO",
        "Description[en_GB]": "TODO",
        "Description[es]": "POR HACER",
        "Description[et]": "kirjutamata",
        "Description[eu]": "EGITEKO",
        "Description[fi]": "TODO",
        "Description[fr]": "A faire",
        "Description[gl]": "PENDENTE",
        "Description[it]": "Da fare",
        "Description[ko]": "TODO",
        "Description[lt]": "Užduočių sąrašas",
        "Description[nl]": "TE DOEN",
        "Description[nn]": "TODO",
        "Description[pl]": "DO ZROBIENIA",
        "Description[pt]": "POR FAZER",
        "Description[pt_BR]": "A FAZER",
        "Description[ru]": "TODO",
        "Description[sk]": "Úlohy",
        "Description[sl]": "Za narediti",
        "Description[sv]": "ATT GÖRA",
        "Description[uk]": "ЩЕ НЕ НАПИСАНО",
        "Description[x-test]": "xxTODOxx",
        "Description[zh_CN]": "待办事项",
        "Description[zh_TW]": "待做",
        "Name": "KDE MTP daemon",
        "Name[ca@valencia]": "Dimoni MTP del KDE",
        "Name[ca]": "Dimoni MTP del KDE",
        "Name[cs]": "Démon MTP pro KDE",
        "Name[da]": "KDE MTP-dæmon",
        "Name[de]": "KDE-MTP-Dienst",
        "Name[el]": "KDE MTP διεργασία",
        "Name[en_GB]": "KDE MTP daemon",
        "Name[es]": "Demonio MTP de KDE",
        "Name[et]": "KDE MTP deemon",
        "Name[eu]": "KDE MTP daimona",
        "Name[fi]": "KDE:n MTP-palvelu",
        "Name[fr]": "Démon « MTP » de KDE",
        "Name[gl]": "Servizo de MTP de KDE",
        "Name[it]": "Demone MTP di KDE",
        "Name[ko]": "KDE MTP 데몬",
        "Name[lt]": "KDE MTP tarnyba",
        "Name[nl]": "KDE MTP-daemon",
        "Name[nn]": "KDE MTP-teneste",
        "Name[pl]": "Usługa KDE MTP",
        "Name[pt]": "Servidor de MTP do KDE",
        "Name[pt_BR]": "Daemon MTP KDE",
        "Name[ru]": "Служба KDE MTP",
        "Name[sk]": "KDE MTP démon",
        "Name[sl]": "KDE demon MTP",
        "Name[sv]": "KDE:s MTP-demon",
        "Name[uk]": "Фонова служба MTP KDE",
        "Name[x-test]": "xxKDE MTP daemonxx",
        "Name[zh_CN]": "KDE MTP 守护程序",
        "Name[zh_TW]": "KDE MTP 守護程式",
        "ServiceTypes": [
            "KDEDModule"
        ]
    },
    "X-KDE-DBus-ServiceName": "kmtpd",
    "X-KDE-Kded-autoload": false,
    "X-KDE-Kded-load-on-demand": true
}
